<svg width="16" height="21" viewBox="0 0 16 21" fill="none" xmlns="http://www.w3.org/2000/svg">
<path d="M11.7417 20.9132H3.63307C3.08232 20.9132 2.55413 20.6944 2.16469 20.305C1.77525 19.9156 1.55646 19.3874 1.55646 18.8366L0.0732422 6.03083C0.0732422 5.84724 0.146171 5.67118 0.275984 5.54136C0.405797 5.41155 0.581862 5.33862 0.765446 5.33862C0.94903 5.33862 1.12509 5.41155 1.25491 5.54136C1.38472 5.67118 1.45765 5.84724 1.45765 6.03083L2.94087 18.8366C2.94087 19.0202 3.0138 19.1963 3.14361 19.3261C3.27343 19.4559 3.44949 19.5288 3.63307 19.5288H11.7417C11.9253 19.5288 12.1014 19.4559 12.2312 19.3261C12.361 19.1963 12.434 19.0202 12.434 18.8366L13.9173 6.03083C13.9173 5.84724 13.9902 5.67118 14.1201 5.54136C14.2499 5.41155 14.4259 5.33862 14.6095 5.33862C14.7931 5.33862 14.9692 5.41155 15.099 5.54136C15.2288 5.67118 15.3017 5.84724 15.3017 6.03083L13.8184 18.8366C13.8184 19.3874 13.5996 19.9156 13.2101 20.305C12.8207 20.6944 12.2925 20.9132 11.7417 20.9132Z" fill="#FB6161"/>
<path d="M14.5105 4.30042H0.864201C0.680617 4.30042 0.504552 4.22749 0.374739 4.09768C0.244925 3.96787 0.171997 3.7918 0.171997 3.60822C0.171997 3.42464 0.244925 3.24857 0.374739 3.11876C0.504552 2.98894 0.680617 2.91602 0.864201 2.91602H14.5105C14.6941 2.91602 14.8702 2.98894 15 3.11876C15.1298 3.24857 15.2027 3.42464 15.2027 3.60822C15.2027 3.7918 15.1298 3.96787 15 4.09768C14.8702 4.22749 14.6941 4.30042 14.5105 4.30042Z" fill="#FB6161"/>
<path d="M10.4562 4.30044C10.2726 4.30044 10.0965 4.22751 9.96669 4.0977C9.83688 3.96788 9.76395 3.79182 9.76395 3.60824V1.53162H5.61073V3.60824C5.61073 3.79182 5.5378 3.96788 5.40798 4.0977C5.27817 4.22751 5.10211 4.30044 4.91852 4.30044C4.73494 4.30044 4.55887 4.22751 4.42906 4.0977C4.29925 3.96788 4.22632 3.79182 4.22632 3.60824V0.83942C4.22632 0.655837 4.29925 0.479772 4.42906 0.349959C4.55887 0.220145 4.73494 0.147217 4.91852 0.147217H10.4562C10.6397 0.147217 10.8158 0.220145 10.9456 0.349959C11.0754 0.479772 11.1484 0.655837 11.1484 0.83942V3.60824C11.1484 3.79182 11.0754 3.96788 10.9456 4.0977C10.8158 4.22751 10.6397 4.30044 10.4562 4.30044Z" fill="#FB6161"/>
<path d="M9.6651 16.0677C9.48152 16.0677 9.30545 15.9947 9.17564 15.8649C9.04583 15.7351 8.9729 15.5591 8.9729 15.3755V8.45343C8.9729 8.26985 9.04583 8.09379 9.17564 7.96397C9.30545 7.83416 9.48152 7.76123 9.6651 7.76123C9.84869 7.76123 10.0248 7.83416 10.1546 7.96397C10.2844 8.09379 10.3573 8.26985 10.3573 8.45343V15.3755C10.3573 15.5591 10.2844 15.7351 10.1546 15.8649C10.0248 15.9947 9.84869 16.0677 9.6651 16.0677Z" fill="#FB6161"/>
<path d="M5.70954 16.0677C5.52595 16.0677 5.34989 15.9947 5.22008 15.8649C5.09026 15.7351 5.01733 15.5591 5.01733 15.3755V8.45343C5.01733 8.26985 5.09026 8.09379 5.22008 7.96397C5.34989 7.83416 5.52595 7.76123 5.70954 7.76123C5.89312 7.76123 6.06919 7.83416 6.199 7.96397C6.32881 8.09379 6.40174 8.26985 6.40174 8.45343V15.3755C6.40174 15.5591 6.32881 15.7351 6.199 15.8649C6.06919 15.9947 5.89312 16.0677 5.70954 16.0677Z" fill="#FB6161"/>
</svg>
